…
### How to find genetic data in OBIS {.unlisted .unnumbered}

To find genetic data in OBIS we recommend using the R package robis, using the `occurrence` function. You must set `extensions` and/or `hasextensions` to "DNADerivedData" to ensure extension records are included in the results. `hasextensions` will exclude any occurrence that does not have the specified extension, in our case, DNADerivedData. The `extensions` parameter specifies which extensions to include. To obtain the DNA data, you have to extract the information from the extension using the `unnest_extension()` function. You can specify as many fields from the Occurrence table to be included, and pass them to the `fields` parameter. See the code below for an example. See also this [vignette](https://iobis.github.io/notebook-dnaderiveddata/) for a more detailed example, including how you can work further with these sequences in R.

```R
dna_occ<-occurrence("Dinophyceae",hasextensions="DNADerivedData", extensions="DNADerivedData")
dnaseqs <-unnest_extension(dna_datasets, "DNADerivedData", fields = c("id", "phylum", "class", "family", "genus", "species"))
dnaseqs["DNA_sequence"]
# A tibble: 706 × 1
   DNA_sequence                                                                                              
   <chr>                                                                                                     
 1 AGCTCCAATAGCGTATATTAAAGTTGTTGCAGTTAAAACGCTCGTAGTCGGATTTCGGGGCGGGCCGACCGGTCTGCCGATGGGTATGCACTGGCCGGCGCGTCC…
 2 AGCTCCAATAGCGTATATTAAAGTTGTTGCAGTTAAAACGCTCGTAGTCGGATTTCGGGGCGGGCCGACCGGTCTGCCGATGGGTATGCACTGGCCGGCGCGTCC…
 3 GCTCCTACCGATTGAATGATCCGGTGAGGCCCCCGGACTGCGGCGCCGCAGCTGGTTCTCCAGCCGCGACGCCGCGGGAAGCTGTCCGAACCTTATCATTTAGAG…
 4 AGCTCCAATAGCGTATATTAAAGTTGTTGCAGTTAAAACGCTCGTAGTCGGATTTCGGGGCGGGCCGACCGGTCTGCCGATGGGTATGCACTGGCCGGCGCGTCC…
 5 AGCTCCAATAGCGTATATTAAAGTTGTTGCAGTTAAAACGCTCGTAGTCGGATTTCGGGGCGGGCCGACCGGTCTGCCGATGGGTATGCACTGGCCGGCGCGTCC…
 6 GCTCCTACCGATTGAATGATCCGGTGAGGCCCCCGGACTGCGGCGCCGCAGCTGGTTCTCCAGCCGCGACGCCGCGGGAAGCTGTCCGAACCTTATCATTTAGAG…
 7 AGCTCCAATAGCGTATATTAAAGTTGTTGCAGTTAAAACGCTCGTAGTCGGATTTCGGGGCGGGCCGACCGGTCTGCCGATGGGTATGCACTGGCCGGCGCGTCC…
 8 AGCTCCAATAGCGTATATTAAAGTTGTTGCAGTTAAAACGCTCGTAGTCGGATTTCGGGGCGGGCCGACCGGTCTGCCGATGGGTATGCACTGGCCGGCGCGTCC…
 9 GCTCCTACCGATTGAATGATCCGGTGAGGCCCCCGGACTGCGGCGCCGCAGCTGGTTCTCCAGCCGCGACGCCGCGGGAAGCTGTCCGAACCTTATCATTTAGAG…
10 AGCTCCAATAGCGTATATTAAAGTTGTTGCAGTTAAAACGCTCGTAGTCGGATTTCGGGGCGGGCCGACCGGTCTGCCGATGGGTATGCACTGGCCGGCGCGTCC…
# … with 696 more rows
```
…
